{
  "type": "service_account",
  "project_id": "app-questionnaire",
  "private_key_id": "d360f19dee51bf721a49ec0f613e231d3c7267fd",
  "private_key": "-----BEGIN PRIVATE KEY-----\nMIIEvQIBADANBgkqhkiG9w0BAQEFAASCBKcwggSjAgEAAoIBAQCwYa6OeR8Ap9cN\n9OWQ1HMBxSrr2EwD+DcIBlNb5XVkRwlk0/PSz19cf85YLe1AVRBT3qWHuKz9vfFI\n9uwbHiSz3DUbeQUiFAX47TJKK2RYspX4XcEwEjrqpqej7cMSH3G7RmtOX1vAHJXn\n+pFbbJJcJV+BpiU+808mm5/5cSk7dNFNjrPx+ILN25xHK134Orf7pSkyzVrUlkGO\nyaZOpeZSvO7reIl/61mbDLH3s5eTflOsMEjJ08X/CVNpIX8k/qkVUSBt+z7DP9ra\nv7I9J2swiR8kmxC6PVZHJD+QzCRKEd1Po2K0KxIth520gAFcr+74gVZJMIJrM817\nId597h+XAgMBAAECggEAEEmXk2t8NpTJJ0OdQVBaUGhdzB/nS8SLhw+tJJgd94UX\nHnrzZzJOwDLDIgxs/gWnjNR2B6rrj+uO0Onlp/loHT3Gn63/ZdlggHny12YwuCoW\n7t5FfS6/HF+zAlBt34oMzWTgJYFpGRFABzHHDiC1VpH9mEd4kAVqzTS4wzw1DlrV\nzeGgt+JD9Ox7XvvhHrfkWpaEcaa9lOOM+5p8uDextRZd+qhZd3tXEXQ5ZfaOiQb4\ngdUDfwS9SjyFwAjc59IfTUVHhKWxCy9lYQJPFkJKMqC4G8nr5M/aiZXQUnOIxfEO\nyKWzybHP4POin+akaVU8HMfMBMPOPrDlfdMkFVHLLQKBgQDxxlGGFapt4mVbzeGo\nrNmTTuFFc+I2rclKqZisNYneoxkogXahgM5Yn/4TPHglYMgBnEBmCQGH8IsE6kgI\nEwtVSlmjgwiu91Wr7+CXcJasf/+E8ldqa3RJuUX1MwftpV4U4YHkXkGibAsVY8Wz\nPUXEgFoOn3UHoii63HRgY59JnQKBgQC6wmSgvHIhDV5ztYV2GW2iF4DyU1TmBtfw\nop4UTVWBqCY3E0h3a0AeaO+wo1V7iTtn5BdIUvuy2780TwJRCJYujuVD20QadUjO\n9D9UMSJ+3+eARbxTy9+sJvoUS0lyHrL6CnZxtLufB8bCx/pM/ug2Nt9TtY5Qy2DA\n0jAdmeoxwwKBgQDGV6+hlDyQkN4eBjRNsB9+HYPo+jxmJwOvYJqDDBjisGJ/PFYa\nABVH11kUZtMZtt/dklWyX0kGQGuLyLb3CMiPW8NVxLVm9DkwKEXTduXk9cylQDo+\nb5Ciun+NvCOQ7czUzHtG4Zxuprwg/AzAElAd+D3pKR9U9876HMjMGm4ecQKBgCte\nhyW4fTxlsWBnb+W8A/SXRq9/YIDGaBEOgm0uhEPGu5Egnjx1IH+vWLIJTAmTFcOL\neUinVKH1W9KW4m/U8aNANcdrPMZ0JANDPw2bF2qlLkpgZ1qCRp/gsURTM2wX6vIb\nyeOf184XbTXAYMTOkTg9x+DVkYX7pK1CYkANhRAnAoGAVGIQ2kDTdVx91c2UskTV\nHbl4v1hY6bK3pCOYVNY4coLnvAc7BhPcXmX1jJG+ryrxbbOywhZC8nDixrF0u0OS\n0g6C5fbAnrsEBGudEWuFlrkKv5zPp3SJAUc2A1AbRdzjtYb9DA3gmhKJ1f+aED37\nmuQgXdSTopfT85u6EVfbw1I=\n-----END PRIVATE KEY-----\n",
  "client_email": "nikservice@app-questionnaire.iam.gserviceaccount.com",
  "client_id": "109626126097432634559",
  "auth_uri": "https://accounts.google.com/o/oauth2/auth",
  "token_uri": "https://oauth2.googleapis.com/token",
  "auth_provider_x509_cert_url": "https://www.googleapis.com/oauth2/v1/certs",
  "client_x509_cert_url": "https://www.googleapis.com/robot/v1/metadata/x509/nikservice%40app-questionnaire.iam.gserviceaccount.com"
}
